[
    {
        "siteName": "iqiyi",
        "logo": "https://www.iqiyipic.com/common/fix/site-v4/sprite-headLogo-index.png",
        "uri": "https://www.iqiyi.com",
        "description": ""
    },
    {
        "siteName": "vqq",
        "logo": "https://vm.gtimg.cn/tencentvideo/vstyle/web/v5/style/img/common/sprite_head_logo.svg",
        "uri": "https://v.qq.com",
        "description": ""
    },
    {
        "siteName": "youku",
        "logo": "https://img.alicdn.com/tfs/TB1dw0vqHGYBuNjy0FoXXciBFXa-120-24.png",
        "uri": "http://www.youku.com",
        "description": ""
    },
    {
        "siteName": "le",
        "logo": "http://static.letvcdn.com/lc04_phone/201803/01/15/01/logo_red.svg",
        "uri": "http://www.le.com/",
        "description": ""
    }
]